Untitled
…
## Warning: `cols` is now required when using unnest().
## Please use `cols = c(dataTables)`

Including Plots

## # A tibble: 135 x 9
##    idGame dateGame   isWin slugTeam slugOpponent .pred_class .pred_FALSE
##     <dbl> <date>     <fct> <fct>    <fct>        <fct>             <dbl>
##  1 2.19e7 2019-11-01 TRUE  SAC      UTA          TRUE              0.484
##  2 2.19e7 2019-11-01 TRUE  CHI      DET          TRUE              0.492
##  3 2.19e7 2019-11-02 TRUE  OKC      NOP          TRUE              0.412
##  4 2.19e7 2019-11-02 TRUE  MIL      TOR          TRUE              0.434
##  5 2.19e7 2019-11-02 TRUE  DET      BKN          TRUE              0.497
##  6 2.19e7 2019-11-02 FALSE ORL      DEN          TRUE              0.414
##  7 2.19e7 2019-11-02 FALSE GSW      CHA          TRUE              0.446
##  8 2.19e7 2019-11-03 TRUE  IND      CHI          TRUE              0.316
##  9 2.19e7 2019-11-03 TRUE  MIA      HOU          TRUE              0.354
## 10 2.19e7 2019-11-03 FALSE CLE      DAL          TRUE              0.441
## #  with 125 more rows, and 2 more variables: .pred_TRUE <dbl>, correct <chr>
…
